%YAML 1.1
%TAG !u! tag:unity3d.com,2011:
--- !u!29 &1
OcclusionCullingSettings:
  m_ObjectHideFlags: 0
  serializedVersion: 2
  m_OcclusionBakeSettings:
    smallestOccluder: 5
    smallestHole: 0.25
    backfaceThreshold: 100
  m_SceneGUID: 00000000000000000000000000000000
  m_OcclusionCullingData: {fileID: 0}
--- !u!104 &2
RenderSettings:
  m_ObjectHideFlags: 0
  serializedVersion: 9
  m_Fog: 0
  m_FogColor: {r: 0.5, g: 0.5, b: 0.5, a: 1}
  m_FogMode: 3
  m_FogDensity: 0.01
  m_LinearFogStart: 0
  m_LinearFogEnd: 300
  m_AmbientSkyColor: {r: 0.212, g: 0.227, b: 0.259, a: 1}
  m_AmbientEquatorColor: {r: 0.114, g: 0.125, b: 0.133, a: 1}
  m_AmbientGroundColor: {r: 0.047, g: 0.043, b: 0.035, a: 1}
  m_AmbientIntensity: 1
  m_AmbientMode: 3
  m_SubtractiveShadowColor: {r: 0.42, g: 0.478, b: 0.627, a: 1}
  m_SkyboxMaterial: {fileID: 0}
  m_HaloStrength: 0.5
  m_FlareStrength: 1
  m_FlareFadeSpeed: 3
  m_HaloTexture: {fileID: 0}
  m_SpotCookie: {fileID: 10001, guid: 0000000000000000e000000000000000, type: 0}
  m_DefaultReflectionMode: 0
  m_DefaultReflectionResolution: 128
  m_ReflectionBounces: 1
  m_ReflectionIntensity: 1
  m_CustomReflection: {fileID: 0}
  m_Sun: {fileID: 0}
  m_IndirectSpecularColor: {r: 0, g: 0, b: 0, a: 1}
  m_UseRadianceAmbientProbe: 0
--- !u!157 &3
LightmapSettings:
  m_ObjectHideFlags: 0
  serializedVersion: 11
  m_GIWorkflowMode: 1
  m_GISettings:
    serializedVersion: 2
    m_BounceScale: 1
    m_IndirectOutputScale: 1
    m_AlbedoBoost: 1
    m_EnvironmentLightingMode: 0
    m_EnableBakedLightmaps: 0
    m_EnableRealtimeLightmaps: 0
  m_LightmapEditorSettings:
    serializedVersion: 12
    m_Resolution: 2
    m_BakeResolution: 40
    m_AtlasSize: 1024
    m_AO: 0
    m_AOMaxDistance: 1
    m_CompAOExponent: 1
    m_CompAOExponentDirect: 0
    m_ExtractAmbientOcclusion: 0
    m_Padding: 2
    m_LightmapParameters: {fileID: 0}
    m_LightmapsBakeMode: 1
    m_TextureCompression: 1
    m_FinalGather: 0
    m_FinalGatherFiltering: 1
    m_FinalGatherRayCount: 256
    m_ReflectionCompression: 2
    m_MixedBakeMode: 2
    m_BakeBackend: 0
    m_PVRSampling: 1
    m_PVRDirectSampleCount: 32
    m_PVRSampleCount: 500
    m_PVRBounces: 2
    m_PVREnvironmentSampleCount: 500
    m_PVREnvironmentReferencePointCount: 2048
    m_PVRFilteringMode: 2
    m_PVRDenoiserTypeDirect: 0
    m_PVRDenoiserTypeIndirect: 0
    m_PVRDenoiserTypeAO: 0
    m_PVRFilterTypeDirect: 0
    m_PVRFilterTypeIndirect: 0
    m_PVRFilterTypeAO: 0
    m_PVREnvironmentMIS: 0
    m_PVRCulling: 1
    m_PVRFilteringGaussRadiusDirect: 1
    m_PVRFilteringGaussRadiusIndirect: 5
    m_PVRFilteringGaussRadiusAO: 2
    m_PVRFilteringAtrousPositionSigmaDirect: 0.5
    m_PVRFilteringAtrousPositionSigmaIndirect: 2
    m_PVRFilteringAtrousPositionSigmaAO: 1
    m_ExportTrainingData: 0
    m_TrainingDataDestination: TrainingData
  m_LightingDataAsset: {fileID: 0}
  m_UseShadowmask: 1
--- !u!196 &4
NavMeshSettings:
  serializedVersion: 2
  m_ObjectHideFlags: 0
  m_BuildSettings:
    serializedVersion: 2
    agentTypeID: 0
    agentRadius: 0.5
    agentHeight: 2
    agentSlope: 45
    agentClimb: 0.4
    ledgeDropHeight: 0
    maxJumpAcrossDistance: 0
    minRegionArea: 2
    manualCellSize: 0
    cellSize: 0.16666667
    manualTileSize: 0
    tileSize: 256
    accuratePlacement: 0
    debug:
      m_Flags: 0
  m_NavMeshData: {fileID: 0}
--- !u!114 &152979756 stripped
MonoBehaviour:
  m_CorrespondingSourceObject: {fileID: 114550823866467276, guid: 42ed9453c529bf34b9fe54125d1274df,
    type: 3}
  m_PrefabInstance: {fileID: 1982767777}
  m_PrefabAsset: {fileID: 0}
  m_GameObject: {fileID: 0}
  m_Enabled: 1
  m_EditorHideFlags: 0
  m_Script: {fileID: 11500000, guid: 5f7201a12d95ffc409449d95f23cf332, type: 3}
  m_Name: 
  m_EditorClassIdentifier: 
--- !u!1 &153659195 stripped
GameObject:
  m_CorrespondingSourceObject: {fileID: 1570037289919256, guid: 42ed9453c529bf34b9fe54125d1274df,
    type: 3}
  m_PrefabInstance: {fileID: 1982767777}
  m_PrefabAsset: {fileID: 0}
--- !u!224 &153659196 stripped
RectTransform:
  m_CorrespondingSourceObject: {fileID: 224998928578984266, guid: 42ed9453c529bf34b9fe54125d1274df,
    type: 3}
  m_PrefabInstance: {fileID: 1982767777}
  m_PrefabAsset: {fileID: 0}
--- !u!114 &153659201
MonoBehaviour:
  m_ObjectHideFlags: 0
  m_CorrespondingSourceObject: {fileID: 0}
  m_PrefabInstance: {fileID: 0}
  m_PrefabAsset: {fileID: 0}
  m_GameObject: {fileID: 153659195}
  m_Enabled: 1
  m_EditorHideFlags: 0
  m_Script: {fileID: 11500000, guid: 796f42cb137232d418d79b565e1592a3, type: 3}
  m_Name: 
  m_EditorClassIdentifier: 
  textUser: {fileID: 1088545229}
  textPassword: {fileID: 152979756}
--- !u!1 &172167862 stripped
GameObject:
  m_CorrespondingSourceObject: {fileID: 1572358249787942, guid: 5b8b00d386b2be84cb2f2a0f999d01c8,
    type: 3}
  m_PrefabInstance: {fileID: 1097743186}
  m_PrefabAsset: {fileID: 0}
--- !u!224 &172167863 stripped
RectTransform:
  m_CorrespondingSourceObject: {fileID: 224960030300546484, guid: 5b8b00d386b2be84cb2f2a0f999d01c8,
    type: 3}
  m_PrefabInstance: {fileID: 1097743186}
  m_PrefabAsset: {fileID: 0}
--- !u!114 &172167864
MonoBehaviour:
  m_ObjectHideFlags: 0
  m_CorrespondingSourceObject: {fileID: 0}
  m_PrefabInstance: {fileID: 0}
  m_PrefabAsset: {fileID: 0}
  m_GameObject: {fileID: 172167862}
  m_Enabled: 1
  m_EditorHideFlags: 0
  m_Script: {fileID: 11500000, guid: 120fa5056d05ba64aae59f337d3ffe3c, type: 3}
  m_Name: 
  m_EditorClassIdentifier: 
  textUser: {fileID: 793555648}
  textPassword: {fileID: 1080320525}
  textEmail: {fileID: 1873714901}
--- !u!1001 &397558429
PrefabInstance:
  m_ObjectHideFlags: 0
  serializedVersion: 2
  m_Modification:
    m_TransformParent: {fileID: 1639516898}
    m_Modifications:
    - target: {fileID: 1510287595876782, guid: 7597bb4510256b742ba9a4c7298ca676, type: 3}
      propertyPath: m_Name
      value: Button-Login-with-Facebook
      objectReference: {fileID: 0}
    - target: {fileID: 224896888986027624, guid: 7597bb4510256b742ba9a4c7298ca676,
        type: 3}
      propertyPath: m_LocalPosition.x
      value: 0
      objectReference: {fileID: 0}
    - target: {fileID: 224896888986027624, guid: 7597bb4510256b742ba9a4c7298ca676,
        type: 3}
      propertyPath: m_LocalPosition.y
      value: 0
      objectReference: {fileID: 0}
    - target: {fileID: 224896888986027624, guid: 7597bb4510256b742ba9a4c7298ca676,
        type: 3}
      propertyPath: m_LocalPosition.z
      value: 0
      objectReference: {fileID: 0}
    - target: {fileID: 224896888986027624, guid: 7597bb4510256b742ba9a4c7298ca676,
        type: 3}
      propertyPath: m_LocalRotation.x
      value: -0
      objectReference: {fileID: 0}
    - target: {fileID: 224896888986027624, guid: 7597bb4510256b742ba9a4c7298ca676,
        type: 3}
      propertyPath: m_LocalRotation.y
      value: -0
      objectReference: {fileID: 0}
    - target: {fileID: 224896888986027624, guid: 7597bb4510256b742ba9a4c7298ca676,
        type: 3}
      propertyPath: m_LocalRotation.z
      value: -0
      objectReference: {fileID: 0}
    - target: {fileID: 224896888986027624, guid: 7597bb4510256b742ba9a4c7298ca676,
        type: 3}
      propertyPath: m_LocalRotation.w
      value: 1
      objectReference: {fileID: 0}
    - target: {fileID: 224896888986027624, guid: 7597bb4510256b742ba9a4c7298ca676,
        type: 3}
      propertyPath: m_RootOrder
      value: 2
      objectReference: {fileID: 0}
    - target: {fileID: 224896888986027624, guid: 7597bb4510256b742ba9a4c7298ca676,
        type: 3}
      propertyPath: m_LocalEulerAnglesHint.x
      value: 0
      objectReference: {fileID: 0}
    - target: {fileID: 224896888986027624, guid: 7597bb4510256b742ba9a4c7298ca676,
        type: 3}
      propertyPath: m_LocalEulerAnglesHint.y
      value: 0
      objectReference: {fileID: 0}
    - target: {fileID: 224896888986027624, guid: 7597bb4510256b742ba9a4c7298ca676,
        type: 3}
      propertyPath: m_LocalEulerAnglesHint.z
      value: 0
      objectReference: {fileID: 0}
    - target: {fileID: 224896888986027624, guid: 7597bb4510256b742ba9a4c7298ca676,
        type: 3}
      propertyPath: m_AnchoredPosition.x
      value: 0
      objectReference: {fileID: 0}
    - target: {fileID: 224896888986027624, guid: 7597bb4510256b742ba9a4c7298ca676,
        type: 3}
      propertyPath: m_AnchoredPosition.y
      value: -475
      objectReference: {fileID: 0}
    - target: {fileID: 224896888986027624, guid: 7597bb4510256b742ba9a4c7298ca676,
        type: 3}
      propertyPath: m_SizeDelta.x
      value: 580
      objectReference: {fileID: 0}
    - target: {fileID: 224896888986027624, guid: 7597bb4510256b742ba9a4c7298ca676,
        type: 3}
      propertyPath: m_SizeDelta.y
      value: 124
      objectReference: {fileID: 0}
    - target: {fileID: 224896888986027624, guid: 7597bb4510256b742ba9a4c7298ca676,
        type: 3}
      propertyPath: m_AnchorMin.x
      value: 0.5
      objectReference: {fileID: 0}
    - target: {fileID: 224896888986027624, guid: 7597bb4510256b742ba9a4c7298ca676,
        type: 3}
      propertyPath: m_AnchorMin.y
      value: 0.5
      objectReference: {fileID: 0}
    - target: {fileID: 224896888986027624, guid: 7597bb4510256b742ba9a4c7298ca676,
        type: 3}
      propertyPath: m_AnchorMax.x
      value: 0.5
      objectReference: {fileID: 0}
    - target: {fileID: 224896888986027624, guid: 7597bb4510256b742ba9a4c7298ca676,
        type: 3}
      propertyPath: m_AnchorMax.y
      value: 0.5
      objectReference: {fileID: 0}
    - target: {fileID: 224896888986027624, guid: 7597bb4510256b742ba9a4c7298ca676,
        type: 3}
      propertyPath: m_Pivot.x
      value: 0.5
      objectReference: {fileID: 0}
    - target: {fileID: 224896888986027624, guid: 7597bb4510256b742ba9a4c7298ca676,
        type: 3}
      propertyPath: m_Pivot.y
      value: 0.5
      objectReference: {fileID: 0}
    - target: {fileID: 114301687147102006, guid: 7597bb4510256b742ba9a4c7298ca676,
        type: 3}
      propertyPath: m_OnClick.m_PersistentCalls.m_Calls.Array.data[0].m_Target
      value: 
      objectReference: {fileID: 538810800}
    - target: {fileID: 114301687147102006, guid: 7597bb4510256b742ba9a4c7298ca676,
        type: 3}
      propertyPath: m_OnClick.m_PersistentCalls.m_Calls.Array.data[0].m_MethodName
      value: UILoginWithFacebook
      objectReference: {fileID: 0}
    m_RemovedComponents: []
  m_SourcePrefab: {fileID: 100100000, guid: 7597bb4510256b742ba9a4c7298ca676, type: 3}
--- !u!1 &519420028
GameObject:
  m_ObjectHideFlags: 0
  m_CorrespondingSourceObject: {fileID: 0}
  m_PrefabInstance: {fileID: 0}
  m_PrefabAsset: {fileID: 0}
  serializedVersion: 6
  m_Component:
  - component: {fileID: 519420032}
  - component: {fileID: 519420031}
  - component: {fileID: 519420029}
  m_Layer: 0
  m_Name: Main Camera
  m_TagString: MainCamera
  m_Icon: {fileID: 0}
  m_NavMeshLayer: 0
  m_StaticEditorFlags: 0
  m_IsActive: 1
--- !u!81 &519420029
AudioListener:
  m_ObjectHideFlags: 0
  m_CorrespondingSourceObject: {fileID: 0}
  m_PrefabInstance: {fileID: 0}
  m_PrefabAsset: {fileID: 0}
  m_GameObject: {fileID: 519420028}
  m_Enabled: 1
--- !u!20 &519420031
Camera:
  m_ObjectHideFlags: 0
  m_CorrespondingSourceObject: {fileID: 0}
  m_PrefabInstance: {fileID: 0}
  m_PrefabAsset: {fileID: 0}
  m_GameObject: {fileID: 519420028}
  m_Enabled: 1
  serializedVersion: 2
  m_ClearFlags: 2
  m_BackGroundColor: {r: 0.19215687, g: 0.3019608, b: 0.4745098, a: 0}
  m_projectionMatrixMode: 1
  m_GateFitMode: 2
  m_FOVAxisMode: 0
  m_SensorSize: {x: 36, y: 24}
  m_LensShift: {x: 0, y: 0}
  m_FocalLength: 50
  m_NormalizedViewPortRect:
    serializedVersion: 2
    x: 0
    y: 0
    width: 1
    height: 1
  near clip plane: 0.3
  far clip plane: 1000
  field of view: 60
  orthographic: 1
  orthographic size: 5
  m_Depth: -1
  m_CullingMask:
    serializedVersion: 2
    m_Bits: 4294967295
  m_RenderingPath: -1
  m_TargetTexture: {fileID: 0}
  m_TargetDisplay: 0
  m_TargetEye: 0
  m_HDR: 1
  m_AllowMSAA: 0
  m_AllowDynamicResolution: 0
  m_ForceIntoRT: 0
  m_OcclusionCulling: 0
  m_StereoConvergence: 10
  m_StereoSeparation: 0.022
--- !u!4 &519420032
Transform:
  m_ObjectHideFlags: 0
  m_CorrespondingSourceObject: {fileID: 0}
  m_PrefabInstance: {fileID: 0}
  m_PrefabAsset: {fileID: 0}
  m_GameObject: {fileID: 519420028}
  m_LocalRotation: {x: 0, y: 0, z: 0, w: 1}
  m_LocalPosition: {x: 0, y: 0, z: -10}
  m_LocalScale: {x: 1, y: 1, z: 1}
  m_Children: []
  m_Father: {fileID: 0}
  m_RootOrder: 0
  m_LocalEulerAnglesHint: {x: 0, y: 0, z: 0}
--- !u!1 &538810794 stripped
GameObject:
  m_CorrespondingSourceObject: {fileID: 1510287595876782, guid: 7597bb4510256b742ba9a4c7298ca676,
    type: 3}
  m_PrefabInstance: {fileID: 397558429}
  m_PrefabAsset: {fileID: 0}
--- !u!224 &538810795 stripped
RectTransform:
  m_CorrespondingSourceObject: {fileID: 224896888986027624, guid: 7597bb4510256b742ba9a4c7298ca676,
    type: 3}
  m_PrefabInstance: {fileID: 397558429}
  m_PrefabAsset: {fileID: 0}
--- !u!114 &538810800
MonoBehaviour:
  m_ObjectHideFlags: 0
  m_CorrespondingSourceObject: {fileID: 0}
  m_PrefabInstance: {fileID: 0}
  m_PrefabAsset: {fileID: 0}
  m_GameObject: {fileID: 538810794}
  m_Enabled: 1
  m_EditorHideFlags: 0
  m_Script: {fileID: 11500000, guid: 400f861cfa11e2146aa62b11176396ce, type: 3}
  m_Name: 
  m_EditorClassIdentifier: 
  btnLogin: {fileID: 538810794}
  ImgProfile: {fileID: 2062726247}
--- !u!114 &793555648 stripped
MonoBehaviour:
  m_CorrespondingSourceObject: {fileID: 114687047319128218, guid: 5b8b00d386b2be84cb2f2a0f999d01c8,
    type: 3}
  m_PrefabInstance: {fileID: 1097743186}
  m_PrefabAsset: {fileID: 0}
  m_GameObject: {fileID: 0}
  m_Enabled: 1
  m_EditorHideFlags: 0
  m_Script: {fileID: 11500000, guid: 5f7201a12d95ffc409449d95f23cf332, type: 3}
  m_Name: 
  m_EditorClassIdentifier: 
--- !u!114 &1080320525 stripped
MonoBehaviour:
  m_CorrespondingSourceObject: {fileID: 114446150508731408, guid: 5b8b00d386b2be84cb2f2a0f999d01c8,
    type: 3}
  m_PrefabInstance: {fileID: 1097743186}
  m_PrefabAsset: {fileID: 0}
  m_GameObject: {fileID: 0}
  m_Enabled: 1
  m_EditorHideFlags: 0
  m_Script: {fileID: 11500000, guid: 5f7201a12d95ffc409449d95f23cf332, type: 3}
  m_Name: 
  m_EditorClassIdentifier: 
--- !u!114 &1088545229 stripped
MonoBehaviour:
  m_CorrespondingSourceObject: {fileID: 114668241068618746, guid: 42ed9453c529bf34b9fe54125d1274df,
    type: 3}
  m_PrefabInstance: {fileID: 1982767777}
  m_PrefabAsset: {fileID: 0}
  m_GameObject: {fileID: 0}
  m_Enabled: 1
  m_EditorHideFlags: 0
  m_Script: {fileID: 11500000, guid: 5f7201a12d95ffc409449d95f23cf332, type: 3}
  m_Name: 
  m_EditorClassIdentifier: 
--- !u!1001 &1097743186
PrefabInstance:
  m_ObjectHideFlags: 0
  serializedVersion: 2
  m_Modification:
    m_TransformParent: {fileID: 1639516898}
    m_Modifications:
    - target: {fileID: 1572358249787942, guid: 5b8b00d386b2be84cb2f2a0f999d01c8, type: 3}
      propertyPath: m_Name
      value: Register-Panel
      objectReference: {fileID: 0}
    - target: {fileID: 224960030300546484, guid: 5b8b00d386b2be84cb2f2a0f999d01c8,
        type: 3}
      propertyPath: m_LocalPosition.x
      value: 0
      objectReference: {fileID: 0}
    - target: {fileID: 224960030300546484, guid: 5b8b00d386b2be84cb2f2a0f999d01c8,
        type: 3}
      propertyPath: m_LocalPosition.y
      value: 0
      objectReference: {fileID: 0}
    - target: {fileID: 224960030300546484, guid: 5b8b00d386b2be84cb2f2a0f999d01c8,
        type: 3}
      propertyPath: m_LocalPosition.z
      value: 0
      objectReference: {fileID: 0}
    - target: {fileID: 224960030300546484, guid: 5b8b00d386b2be84cb2f2a0f999d01c8,
        type: 3}
      propertyPath: m_LocalRotation.x
      value: 0
      objectReference: {fileID: 0}
    - target: {fileID: 224960030300546484, guid: 5b8b00d386b2be84cb2f2a0f999d01c8,
        type: 3}
      propertyPath: m_LocalRotation.y
      value: 0
      objectReference: {fileID: 0}
    - target: {fileID: 224960030300546484, guid: 5b8b00d386b2be84cb2f2a0f999d01c8,
        type: 3}
      propertyPath: m_LocalRotation.z
      value: 0
      objectReference: {fileID: 0}
    - target: {fileID: 224960030300546484, guid: 5b8b00d386b2be84cb2f2a0f999d01c8,
        type: 3}
      propertyPath: m_LocalRotation.w
      value: 1
      objectReference: {fileID: 0}
    - target: {fileID: 224960030300546484, guid: 5b8b00d386b2be84cb2f2a0f999d01c8,
        type: 3}
      propertyPath: m_RootOrder
      value: 0
      objectReference: {fileID: 0}
    - target: {fileID: 224960030300546484, guid: 5b8b00d386b2be84cb2f2a0f999d01c8,
        type: 3}
      propertyPath: m_LocalEulerAnglesHint.x
      value: 0
      objectReference: {fileID: 0}
    - target: {fileID: 224960030300546484, guid: 5b8b00d386b2be84cb2f2a0f999d01c8,
        type: 3}
      propertyPath: m_LocalEulerAnglesHint.y
      value: 0
      objectReference: {fileID: 0}
    - target: {fileID: 224960030300546484, guid: 5b8b00d386b2be84cb2f2a0f999d01c8,
        type: 3}
      propertyPath: m_LocalEulerAnglesHint.z
      value: 0
      objectReference: {fileID: 0}
    - target: {fileID: 224960030300546484, guid: 5b8b00d386b2be84cb2f2a0f999d01c8,
        type: 3}
      propertyPath: m_AnchoredPosition.x
      value: -3
      objectReference: {fileID: 0}
    - target: {fileID: 224960030300546484, guid: 5b8b00d386b2be84cb2f2a0f999d01c8,
        type: 3}
      propertyPath: m_AnchoredPosition.y
      value: 338
      objectReference: {fileID: 0}
    - target: {fileID: 224960030300546484, guid: 5b8b00d386b2be84cb2f2a0f999d01c8,
        type: 3}
      propertyPath: m_SizeDelta.x
      value: 0
      objectReference: {fileID: 0}
    - target: {fileID: 224960030300546484, guid: 5b8b00d386b2be84cb2f2a0f999d01c8,
        type: 3}
      propertyPath: m_SizeDelta.y
      value: 0
      objectReference: {fileID: 0}
    - target: {fileID: 224960030300546484, guid: 5b8b00d386b2be84cb2f2a0f999d01c8,
        type: 3}
      propertyPath: m_AnchorMin.x
      value: 0.5
      objectReference: {fileID: 0}
    - target: {fileID: 224960030300546484, guid: 5b8b00d386b2be84cb2f2a0f999d01c8,
        type: 3}
      propertyPath: m_AnchorMin.y
      value: 0.5
      objectReference: {fileID: 0}
    - target: {fileID: 224960030300546484, guid: 5b8b00d386b2be84cb2f2a0f999d01c8,
        type: 3}
      propertyPath: m_AnchorMax.x
      value: 0.5
      objectReference: {fileID: 0}
    - target: {fileID: 224960030300546484, guid: 5b8b00d386b2be84cb2f2a0f999d01c8,
        type: 3}
      propertyPath: m_AnchorMax.y
      value: 0.5
      objectReference: {fileID: 0}
    - target: {fileID: 224960030300546484, guid: 5b8b00d386b2be84cb2f2a0f999d01c8,
        type: 3}
      propertyPath: m_Pivot.x
      value: 0.5
      objectReference: {fileID: 0}
    - target: {fileID: 224960030300546484, guid: 5b8b00d386b2be84cb2f2a0f999d01c8,
        type: 3}
      propertyPath: m_Pivot.y
      value: 0.5
      objectReference: {fileID: 0}
    - target: {fileID: 224960030300546484, guid: 5b8b00d386b2be84cb2f2a0f999d01c8,
        type: 3}
      propertyPath: m_LocalScale.x
      value: 1.5638
      objectReference: {fileID: 0}
    - target: {fileID: 224960030300546484, guid: 5b8b00d386b2be84cb2f2a0f999d01c8,
        type: 3}
      propertyPath: m_LocalScale.y
      value: 1.5638
      objectReference: {fileID: 0}
    - target: {fileID: 224960030300546484, guid: 5b8b00d386b2be84cb2f2a0f999d01c8,
        type: 3}
      propertyPath: m_LocalScale.z
      value: 1.5638
      objectReference: {fileID: 0}
    - target: {fileID: 224207021949600796, guid: 5b8b00d386b2be84cb2f2a0f999d01c8,
        type: 3}
      propertyPath: m_AnchorMin.y
      value: 0
      objectReference: {fileID: 0}
    - target: {fileID: 224207021949600796, guid: 5b8b00d386b2be84cb2f2a0f999d01c8,
        type: 3}
      propertyPath: m_AnchorMax.y
      value: 0
      objectReference: {fileID: 0}
    - target: {fileID: 224207021949600796, guid: 5b8b00d386b2be84cb2f2a0f999d01c8,
        type: 3}
      propertyPath: m_AnchoredPosition.x
      value: 0
      objectReference: {fileID: 0}
    - target: {fileID: 224207021949600796, guid: 5b8b00d386b2be84cb2f2a0f999d01c8,
        type: 3}
      propertyPath: m_AnchoredPosition.y
      value: 0
      objectReference: {fileID: 0}
    - target: {fileID: 224718108537088878, guid: 5b8b00d386b2be84cb2f2a0f999d01c8,
        type: 3}
      propertyPath: m_AnchorMin.y
      value: 0
      objectReference: {fileID: 0}
    - target: {fileID: 224718108537088878, guid: 5b8b00d386b2be84cb2f2a0f999d01c8,
        type: 3}
      propertyPath: m_AnchorMax.y
      value: 0
      objectReference: {fileID: 0}
    - target: {fileID: 224718108537088878, guid: 5b8b00d386b2be84cb2f2a0f999d01c8,
        type: 3}
      propertyPath: m_AnchoredPosition.x
      value: 0
      objectReference: {fileID: 0}
    - target: {fileID: 224718108537088878, guid: 5b8b00d386b2be84cb2f2a0f999d01c8,
        type: 3}
      propertyPath: m_AnchoredPosition.y
      value: 0
      objectReference: {fileID: 0}
    - target: {fileID: 224654995152628018, guid: 5b8b00d386b2be84cb2f2a0f999d01c8,
        type: 3}
      propertyPath: m_AnchorMin.y
      value: 0
      objectReference: {fileID: 0}
    - target: {fileID: 224654995152628018, guid: 5b8b00d386b2be84cb2f2a0f999d01c8,
        type: 3}
      propertyPath: m_AnchorMax.y
      value: 0
      objectReference: {fileID: 0}
    - target: {fileID: 224654995152628018, guid: 5b8b00d386b2be84cb2f2a0f999d01c8,
        type: 3}
      propertyPath: m_AnchoredPosition.x
      value: 0
      objectReference: {fileID: 0}
    - target: {fileID: 224654995152628018, guid: 5b8b00d386b2be84cb2f2a0f999d01c8,
        type: 3}
      propertyPath: m_AnchoredPosition.y
      value: 0
      objectReference: {fileID: 0}
    - target: {fileID: 224452686426300980, guid: 5b8b00d386b2be84cb2f2a0f999d01c8,
        type: 3}
      propertyPath: m_AnchorMin.y
      value: 0
      objectReference: {fileID: 0}
    - target: {fileID: 224452686426300980, guid: 5b8b00d386b2be84cb2f2a0f999d01c8,
        type: 3}
      propertyPath: m_AnchorMax.y
      value: 0
      objectReference: {fileID: 0}
    - target: {fileID: 224452686426300980, guid: 5b8b00d386b2be84cb2f2a0f999d01c8,
        type: 3}
      propertyPath: m_AnchoredPosition.x
      value: 0
      objectReference: {fileID: 0}
    - target: {fileID: 224452686426300980, guid: 5b8b00d386b2be84cb2f2a0f999d01c8,
        type: 3}
      propertyPath: m_AnchoredPosition.y
      value: 0
      objectReference: {fileID: 0}
    - target: {fileID: 224515710028577828, guid: 5b8b00d386b2be84cb2f2a0f999d01c8,
        type: 3}
      propertyPath: m_AnchorMin.y
      value: 0
      objectReference: {fileID: 0}
    - target: {fileID: 224515710028577828, guid: 5b8b00d386b2be84cb2f2a0f999d01c8,
        type: 3}
      propertyPath: m_AnchorMax.y
      value: 0
      objectReference: {fileID: 0}
    - target: {fileID: 224515710028577828, guid: 5b8b00d386b2be84cb2f2a0f999d01c8,
        type: 3}
      propertyPath: m_AnchoredPosition.x
      value: 0
      objectReference: {fileID: 0}
    - target: {fileID: 224515710028577828, guid: 5b8b00d386b2be84cb2f2a0f999d01c8,
        type: 3}
      propertyPath: m_AnchoredPosition.y
      value: 0
      objectReference: {fileID: 0}
    - target: {fileID: 224973889263829194, guid: 5b8b00d386b2be84cb2f2a0f999d01c8,
        type: 3}
      propertyPath: m_AnchorMin.y
      value: 0
      objectReference: {fileID: 0}
    - target: {fileID: 224973889263829194, guid: 5b8b00d386b2be84cb2f2a0f999d01c8,
        type: 3}
      propertyPath: m_AnchorMax.y
      value: 0
      objectReference: {fileID: 0}
    - target: {fileID: 224973889263829194, guid: 5b8b00d386b2be84cb2f2a0f999d01c8,
        type: 3}
      propertyPath: m_AnchoredPosition.x
      value: 0
      objectReference: {fileID: 0}
    - target: {fileID: 224973889263829194, guid: 5b8b00d386b2be84cb2f2a0f999d01c8,
        type: 3}
      propertyPath: m_AnchoredPosition.y
      value: 0
      objectReference: {fileID: 0}
    - target: {fileID: 224945393461637880, guid: 5b8b00d386b2be84cb2f2a0f999d01c8,
        type: 3}
      propertyPath: m_AnchorMin.y
      value: 0
      objectReference: {fileID: 0}
    - target: {fileID: 224945393461637880, guid: 5b8b00d386b2be84cb2f2a0f999d01c8,
        type: 3}
      propertyPath: m_AnchorMax.y
      value: 0
      objectReference: {fileID: 0}
    - target: {fileID: 224945393461637880, guid: 5b8b00d386b2be84cb2f2a0f999d01c8,
        type: 3}
      propertyPath: m_AnchoredPosition.x
      value: 0
      objectReference: {fileID: 0}
    - target: {fileID: 224945393461637880, guid: 5b8b00d386b2be84cb2f2a0f999d01c8,
        type: 3}
      propertyPath: m_AnchoredPosition.y
      value: 0
      objectReference: {fileID: 0}
    - target: {fileID: 224425226304103496, guid: 5b8b00d386b2be84cb2f2a0f999d01c8,
        type: 3}
      propertyPath: m_AnchorMin.y
      value: 0
      objectReference: {fileID: 0}
    - target: {fileID: 224425226304103496, guid: 5b8b00d386b2be84cb2f2a0f999d01c8,
        type: 3}
      propertyPath: m_AnchorMax.y
      value: 0
      objectReference: {fileID: 0}
    - target: {fileID: 224425226304103496, guid: 5b8b00d386b2be84cb2f2a0f999d01c8,
        type: 3}
      propertyPath: m_AnchoredPosition.x
      value: 0
      objectReference: {fileID: 0}
    - target: {fileID: 224425226304103496, guid: 5b8b00d386b2be84cb2f2a0f999d01c8,
        type: 3}
      propertyPath: m_AnchoredPosition.y
      value: 0
      objectReference: {fileID: 0}
    - target: {fileID: 224056356350401770, guid: 5b8b00d386b2be84cb2f2a0f999d01c8,
        type: 3}
      propertyPath: m_AnchorMin.y
      value: 0
      objectReference: {fileID: 0}
    - target: {fileID: 224056356350401770, guid: 5b8b00d386b2be84cb2f2a0f999d01c8,
        type: 3}
      propertyPath: m_AnchorMax.y
      value: 0
      objectReference: {fileID: 0}
    - target: {fileID: 224056356350401770, guid: 5b8b00d386b2be84cb2f2a0f999d01c8,
        type: 3}
      propertyPath: m_AnchoredPosition.x
      value: 0
      objectReference: {fileID: 0}
    - target: {fileID: 224056356350401770, guid: 5b8b00d386b2be84cb2f2a0f999d01c8,
        type: 3}
      propertyPath: m_AnchoredPosition.y
      value: 0
      objectReference: {fileID: 0}
    - target: {fileID: 224763354437860722, guid: 5b8b00d386b2be84cb2f2a0f999d01c8,
        type: 3}
      propertyPath: m_AnchorMin.y
      value: 0
      objectReference: {fileID: 0}
    - target: {fileID: 224763354437860722, guid: 5b8b00d386b2be84cb2f2a0f999d01c8,
        type: 3}
      propertyPath: m_AnchorMax.y
      value: 0
      objectReference: {fileID: 0}
    - target: {fileID: 224763354437860722, guid: 5b8b00d386b2be84cb2f2a0f999d01c8,
        type: 3}
      propertyPath: m_AnchoredPosition.x
      value: 0
      objectReference: {fileID: 0}
    - target: {fileID: 224763354437860722, guid: 5b8b00d386b2be84cb2f2a0f999d01c8,
        type: 3}
      propertyPath: m_AnchoredPosition.y
      value: 0
      objectReference: {fileID: 0}
    - target: {fileID: 114425478169769480, guid: 5b8b00d386b2be84cb2f2a0f999d01c8,
        type: 3}
      propertyPath: m_OnClick.m_PersistentCalls.m_Calls.Array.data[0].m_Target
      value: 
      objectReference: {fileID: 172167864}
    - target: {fileID: 114425478169769480, guid: 5b8b00d386b2be84cb2f2a0f999d01c8,
        type: 3}
      propertyPath: m_OnClick.m_PersistentCalls.m_Calls.Array.data[0].m_MethodName
      value: UIRegisterPlayFabUserWithUserAndPassword
      objectReference: {fileID: 0}
    m_RemovedComponents: []
  m_SourcePrefab: {fileID: 100100000, guid: 5b8b00d386b2be84cb2f2a0f999d01c8, type: 3}
--- !u!1 &1639516894
GameObject:
  m_ObjectHideFlags: 0
  m_CorrespondingSourceObject: {fileID: 0}
  m_PrefabInstance: {fileID: 0}
  m_PrefabAsset: {fileID: 0}
  serializedVersion: 6
  m_Component:
  - component: {fileID: 1639516898}
  - component: {fileID: 1639516897}
  - component: {fileID: 1639516896}
  - component: {fileID: 1639516895}
  m_Layer: 5
  m_Name: Canvas
  m_TagString: Untagged
  m_Icon: {fileID: 0}
  m_NavMeshLayer: 0
  m_StaticEditorFlags: 0
  m_IsActive: 1
--- !u!114 &1639516895
MonoBehaviour:
  m_ObjectHideFlags: 0
  m_CorrespondingSourceObject: {fileID: 0}
  m_PrefabInstance: {fileID: 0}
  m_PrefabAsset: {fileID: 0}
  m_GameObject: {fileID: 1639516894}
  m_Enabled: 1
  m_EditorHideFlags: 0
  m_Script: {fileID: 11500000, guid: dc42784cf147c0c48a680349fa168899, type: 3}
  m_Name: 
  m_EditorClassIdentifier: 
  m_IgnoreReversedGraphics: 1
  m_BlockingObjects: 0
  m_BlockingMask:
    serializedVersion: 2
    m_Bits: 4294967295
--- !u!114 &1639516896
MonoBehaviour:
  m_ObjectHideFlags: 0
  m_CorrespondingSourceObject: {fileID: 0}
  m_PrefabInstance: {fileID: 0}
  m_PrefabAsset: {fileID: 0}
  m_GameObject: {fileID: 1639516894}
  m_Enabled: 1
  m_EditorHideFlags: 0
  m_Script: {fileID: 11500000, guid: 0cd44c1031e13a943bb63640046fad76, type: 3}
  m_Name: 
  m_EditorClassIdentifier: 
  m_UiScaleMode: 0
  m_ReferencePixelsPerUnit: 100
  m_ScaleFactor: 1
  m_ReferenceResolution: {x: 800, y: 600}
  m_ScreenMatchMode: 0
  m_MatchWidthOrHeight: 0
  m_PhysicalUnit: 3
  m_FallbackScreenDPI: 96
  m_DefaultSpriteDPI: 96
  m_DynamicPixelsPerUnit: 1
--- !u!223 &1639516897
Canvas:
  m_ObjectHideFlags: 0
  m_CorrespondingSourceObject: {fileID: 0}
  m_PrefabInstance: {fileID: 0}
  m_PrefabAsset: {fileID: 0}
  m_GameObject: {fileID: 1639516894}
  m_Enabled: 1
  serializedVersion: 3
  m_RenderMode: 0
  m_Camera: {fileID: 0}
  m_PlaneDistance: 100
  m_PixelPerfect: 0
  m_ReceivesEvents: 1
  m_OverrideSorting: 0
  m_OverridePixelPerfect: 0
  m_SortingBucketNormalizedSize: 0
  m_AdditionalShaderChannelsFlag: 0
  m_SortingLayerID: 0
  m_SortingOrder: 0
  m_TargetDisplay: 0
--- !u!224 &1639516898
RectTransform:
  m_ObjectHideFlags: 0
  m_CorrespondingSourceObject: {fileID: 0}
  m_PrefabInstance: {fileID: 0}
  m_PrefabAsset: {fileID: 0}
  m_GameObject: {fileID: 1639516894}
  m_LocalRotation: {x: 0, y: 0, z: 0, w: 1}
  m_LocalPosition: {x: 0, y: 0, z: 0}
  m_LocalScale: {x: 0, y: 0, z: 0}
  m_Children:
  - {fileID: 172167863}
  - {fileID: 153659196}
  - {fileID: 538810795}
  - {fileID: 2062726246}
  m_Father: {fileID: 0}
  m_RootOrder: 1
  m_LocalEulerAnglesHint: {x: 0, y: 0, z: 0}
  m_AnchorMin: {x: 0, y: 0}
  m_AnchorMax: {x: 0, y: 0}
  m_AnchoredPosition: {x: 0, y: 0}
  m_SizeDelta: {x: 0, y: 0}
  m_Pivot: {x: 0, y: 0}
--- !u!114 &1873714901 stripped
MonoBehaviour:
  m_CorrespondingSourceObject: {fileID: 114403459265075826, guid: 5b8b00d386b2be84cb2f2a0f999d01c8,
    type: 3}
  m_PrefabInstance: {fileID: 1097743186}
  m_PrefabAsset: {fileID: 0}
  m_GameObject: {fileID: 0}
  m_Enabled: 1
  m_EditorHideFlags: 0
  m_Script: {fileID: 11500000, guid: 5f7201a12d95ffc409449d95f23cf332, type: 3}
  m_Name: 
  m_EditorClassIdentifier: 
--- !u!1 &1911924495
GameObject:
  m_ObjectHideFlags: 0
  m_CorrespondingSourceObject: {fileID: 0}
  m_PrefabInstance: {fileID: 0}
  m_PrefabAsset: {fileID: 0}
  serializedVersion: 6
  m_Component:
  - component: {fileID: 1911924498}
  - component: {fileID: 1911924497}
  - component: {fileID: 1911924496}
  m_Layer: 0
  m_Name: EventSystem
  m_TagString: Untagged
  m_Icon: {fileID: 0}
  m_NavMeshLayer: 0
  m_StaticEditorFlags: 0
  m_IsActive: 1
--- !u!114 &1911924496
MonoBehaviour:
  m_ObjectHideFlags: 0
  m_CorrespondingSourceObject: {fileID: 0}
  m_PrefabInstance: {fileID: 0}
  m_PrefabAsset: {fileID: 0}
  m_GameObject: {fileID: 1911924495}
  m_Enabled: 1
  m_EditorHideFlags: 0
  m_Script: {fileID: 11500000, guid: 4f231c4fb786f3946a6b90b886c48677, type: 3}
  m_Name: 
  m_EditorClassIdentifier: 
  m_HorizontalAxis: Horizontal
  m_VerticalAxis: Vertical
  m_SubmitButton: Submit
  m_CancelButton: Cancel
  m_InputActionsPerSecond: 10
  m_RepeatDelay: 0.5
  m_ForceModuleActive: 0
--- !u!114 &1911924497
MonoBehaviour:
  m_ObjectHideFlags: 0
  m_CorrespondingSourceObject: {fileID: 0}
  m_PrefabInstance: {fileID: 0}
  m_PrefabAsset: {fileID: 0}
  m_GameObject: {fileID: 1911924495}
  m_Enabled: 1
  m_EditorHideFlags: 0
  m_Script: {fileID: 11500000, guid: 76c392e42b5098c458856cdf6ecaaaa1, type: 3}
  m_Name: 
  m_EditorClassIdentifier: 
  m_FirstSelected: {fileID: 0}
  m_sendNavigationEvents: 1
  m_DragThreshold: 10
--- !u!4 &1911924498
Transform:
  m_ObjectHideFlags: 0
  m_CorrespondingSourceObject: {fileID: 0}
  m_PrefabInstance: {fileID: 0}
  m_PrefabAsset: {fileID: 0}
  m_GameObject: {fileID: 1911924495}
  m_LocalRotation: {x: 0, y: 0, z: 0, w: 1}
  m_LocalPosition: {x: 0, y: 0, z: 0}
  m_LocalScale: {x: 1, y: 1, z: 1}
  m_Children: []
  m_Father: {fileID: 0}
  m_RootOrder: 2
  m_LocalEulerAnglesHint: {x: 0, y: 0, z: 0}
--- !u!1001 &1982767777
PrefabInstance:
  m_ObjectHideFlags: 0
  serializedVersion: 2
  m_Modification:
    m_TransformParent: {fileID: 1639516898}
    m_Modifications:
    - target: {fileID: 1570037289919256, guid: 42ed9453c529bf34b9fe54125d1274df, type: 3}
      propertyPath: m_Name
      value: Login-Panel
      objectReference: {fileID: 0}
    - target: {fileID: 224998928578984266, guid: 42ed9453c529bf34b9fe54125d1274df,
        type: 3}
      propertyPath: m_LocalPosition.x
      value: 0
      objectReference: {fileID: 0}
    - target: {fileID: 224998928578984266, guid: 42ed9453c529bf34b9fe54125d1274df,
        type: 3}
      propertyPath: m_LocalPosition.y
      value: 0
      objectReference: {fileID: 0}
    - target: {fileID: 224998928578984266, guid: 42ed9453c529bf34b9fe54125d1274df,
        type: 3}
      propertyPath: m_LocalPosition.z
      value: 0
      objectReference: {fileID: 0}
    - target: {fileID: 224998928578984266, guid: 42ed9453c529bf34b9fe54125d1274df,
        type: 3}
      propertyPath: m_LocalRotation.x
      value: -0
      objectReference: {fileID: 0}
    - target: {fileID: 224998928578984266, guid: 42ed9453c529bf34b9fe54125d1274df,
        type: 3}
      propertyPath: m_LocalRotation.y
      value: -0
      objectReference: {fileID: 0}
    - target: {fileID: 224998928578984266, guid: 42ed9453c529bf34b9fe54125d1274df,
        type: 3}
      propertyPath: m_LocalRotation.z
      value: -0
      objectReference: {fileID: 0}
    - target: {fileID: 224998928578984266, guid: 42ed9453c529bf34b9fe54125d1274df,
        type: 3}
      propertyPath: m_LocalRotation.w
      value: 1
      objectReference: {fileID: 0}
    - target: {fileID: 224998928578984266, guid: 42ed9453c529bf34b9fe54125d1274df,
        type: 3}
      propertyPath: m_RootOrder
      value: 1
      objectReference: {fileID: 0}
    - target: {fileID: 224998928578984266, guid: 42ed9453c529bf34b9fe54125d1274df,
        type: 3}
      propertyPath: m_LocalEulerAnglesHint.x
      value: 0
      objectReference: {fileID: 0}
    - target: {fileID: 224998928578984266, guid: 42ed9453c529bf34b9fe54125d1274df,
        type: 3}
      propertyPath: m_LocalEulerAnglesHint.y
      value: 0
      objectReference: {fileID: 0}
    - target: {fileID: 224998928578984266, guid: 42ed9453c529bf34b9fe54125d1274df,
        type: 3}
      propertyPath: m_LocalEulerAnglesHint.z
      value: 0
      objectReference: {fileID: 0}
    - target: {fileID: 224998928578984266, guid: 42ed9453c529bf34b9fe54125d1274df,
        type: 3}
      propertyPath: m_AnchoredPosition.x
      value: 0
      objectReference: {fileID: 0}
    - target: {fileID: 224998928578984266, guid: 42ed9453c529bf34b9fe54125d1274df,
        type: 3}
      propertyPath: m_AnchoredPosition.y
      value: -170
      objectReference: {fileID: 0}
    - target: {fileID: 224998928578984266, guid: 42ed9453c529bf34b9fe54125d1274df,
        type: 3}
      propertyPath: m_SizeDelta.x
      value: 0
      objectReference: {fileID: 0}
    - target: {fileID: 224998928578984266, guid: 42ed9453c529bf34b9fe54125d1274df,
        type: 3}
      propertyPath: m_SizeDelta.y
      value: 0
      objectReference: {fileID: 0}
    - target: {fileID: 224998928578984266, guid: 42ed9453c529bf34b9fe54125d1274df,
        type: 3}
      propertyPath: m_AnchorMin.x
      value: 0.5
      objectReference: {fileID: 0}
    - target: {fileID: 224998928578984266, guid: 42ed9453c529bf34b9fe54125d1274df,
        type: 3}
      propertyPath: m_AnchorMin.y
      value: 0.5
      objectReference: {fileID: 0}
    - target: {fileID: 224998928578984266, guid: 42ed9453c529bf34b9fe54125d1274df,
        type: 3}
      propertyPath: m_AnchorMax.x
      value: 0.5
      objectReference: {fileID: 0}
    - target: {fileID: 224998928578984266, guid: 42ed9453c529bf34b9fe54125d1274df,
        type: 3}
      propertyPath: m_AnchorMax.y
      value: 0.5
      objectReference: {fileID: 0}
    - target: {fileID: 224998928578984266, guid: 42ed9453c529bf34b9fe54125d1274df,
        type: 3}
      propertyPath: m_Pivot.x
      value: 0.5
      objectReference: {fileID: 0}
    - target: {fileID: 224998928578984266, guid: 42ed9453c529bf34b9fe54125d1274df,
        type: 3}
      propertyPath: m_Pivot.y
      value: 0.5
      objectReference: {fileID: 0}
    - target: {fileID: 224998928578984266, guid: 42ed9453c529bf34b9fe54125d1274df,
        type: 3}
      propertyPath: m_LocalScale.x
      value: 1.7815548
      objectReference: {fileID: 0}
    - target: {fileID: 224998928578984266, guid: 42ed9453c529bf34b9fe54125d1274df,
        type: 3}
      propertyPath: m_LocalScale.y
      value: 1.7815548
      objectReference: {fileID: 0}
    - target: {fileID: 224998928578984266, guid: 42ed9453c529bf34b9fe54125d1274df,
        type: 3}
      propertyPath: m_LocalScale.z
      value: 1.7815548
      objectReference: {fileID: 0}
    - target: {fileID: 224152685200345702, guid: 42ed9453c529bf34b9fe54125d1274df,
        type: 3}
      propertyPath: m_AnchorMin.y
      value: 0
      objectReference: {fileID: 0}
    - target: {fileID: 224152685200345702, guid: 42ed9453c529bf34b9fe54125d1274df,
        type: 3}
      propertyPath: m_AnchorMax.y
      value: 0
      objectReference: {fileID: 0}
    - target: {fileID: 224152685200345702, guid: 42ed9453c529bf34b9fe54125d1274df,
        type: 3}
      propertyPath: m_AnchoredPosition.x
      value: 0
      objectReference: {fileID: 0}
    - target: {fileID: 224152685200345702, guid: 42ed9453c529bf34b9fe54125d1274df,
        type: 3}
      propertyPath: m_AnchoredPosition.y
      value: 0
      objectReference: {fileID: 0}
    - target: {fileID: 224559965419002082, guid: 42ed9453c529bf34b9fe54125d1274df,
        type: 3}
      propertyPath: m_AnchorMin.y
      value: 0
      objectReference: {fileID: 0}
    - target: {fileID: 224559965419002082, guid: 42ed9453c529bf34b9fe54125d1274df,
        type: 3}
      propertyPath: m_AnchorMax.y
      value: 0
      objectReference: {fileID: 0}
    - target: {fileID: 224559965419002082, guid: 42ed9453c529bf34b9fe54125d1274df,
        type: 3}
      propertyPath: m_AnchoredPosition.x
      value: 0
      objectReference: {fileID: 0}
    - target: {fileID: 224559965419002082, guid: 42ed9453c529bf34b9fe54125d1274df,
        type: 3}
      propertyPath: m_AnchoredPosition.y
      value: 0
      objectReference: {fileID: 0}
    - target: {fileID: 224128843057188724, guid: 42ed9453c529bf34b9fe54125d1274df,
        type: 3}
      propertyPath: m_AnchorMin.y
      value: 0
      objectReference: {fileID: 0}
    - target: {fileID: 224128843057188724, guid: 42ed9453c529bf34b9fe54125d1274df,
        type: 3}
      propertyPath: m_AnchorMax.y
      value: 0
      objectReference: {fileID: 0}
    - target: {fileID: 224128843057188724, guid: 42ed9453c529bf34b9fe54125d1274df,
        type: 3}
      propertyPath: m_AnchoredPosition.x
      value: 0
      objectReference: {fileID: 0}
    - target: {fileID: 224128843057188724, guid: 42ed9453c529bf34b9fe54125d1274df,
        type: 3}
      propertyPath: m_AnchoredPosition.y
      value: 0
      objectReference: {fileID: 0}
    - target: {fileID: 224604427571068668, guid: 42ed9453c529bf34b9fe54125d1274df,
        type: 3}
      propertyPath: m_AnchorMin.y
      value: 0
      objectReference: {fileID: 0}
    - target: {fileID: 224604427571068668, guid: 42ed9453c529bf34b9fe54125d1274df,
        type: 3}
      propertyPath: m_AnchorMax.y
      value: 0
      objectReference: {fileID: 0}
    - target: {fileID: 224604427571068668, guid: 42ed9453c529bf34b9fe54125d1274df,
        type: 3}
      propertyPath: m_AnchoredPosition.x
      value: 0
      objectReference: {fileID: 0}
    - target: {fileID: 224604427571068668, guid: 42ed9453c529bf34b9fe54125d1274df,
        type: 3}
      propertyPath: m_AnchoredPosition.y
      value: 0
      objectReference: {fileID: 0}
    - target: {fileID: 224361730314526110, guid: 42ed9453c529bf34b9fe54125d1274df,
        type: 3}
      propertyPath: m_AnchorMin.y
      value: 0
      objectReference: {fileID: 0}
    - target: {fileID: 224361730314526110, guid: 42ed9453c529bf34b9fe54125d1274df,
        type: 3}
      propertyPath: m_AnchorMax.y
      value: 0
      objectReference: {fileID: 0}
    - target: {fileID: 224361730314526110, guid: 42ed9453c529bf34b9fe54125d1274df,
        type: 3}
      propertyPath: m_AnchoredPosition.x
      value: 0
      objectReference: {fileID: 0}
    - target: {fileID: 224361730314526110, guid: 42ed9453c529bf34b9fe54125d1274df,
        type: 3}
      propertyPath: m_AnchoredPosition.y
      value: 0
      objectReference: {fileID: 0}
    - target: {fileID: 224478332561894088, guid: 42ed9453c529bf34b9fe54125d1274df,
        type: 3}
      propertyPath: m_AnchorMin.y
      value: 0
      objectReference: {fileID: 0}
    - target: {fileID: 224478332561894088, guid: 42ed9453c529bf34b9fe54125d1274df,
        type: 3}
      propertyPath: m_AnchorMax.y
      value: 0
      objectReference: {fileID: 0}
    - target: {fileID: 224478332561894088, guid: 42ed9453c529bf34b9fe54125d1274df,
        type: 3}
      propertyPath: m_AnchoredPosition.x
      value: 0
      objectReference: {fileID: 0}
    - target: {fileID: 224478332561894088, guid: 42ed9453c529bf34b9fe54125d1274df,
        type: 3}
      propertyPath: m_AnchoredPosition.y
      value: 0
      objectReference: {fileID: 0}
    - target: {fileID: 224932240763334860, guid: 42ed9453c529bf34b9fe54125d1274df,
        type: 3}
      propertyPath: m_AnchorMin.y
      value: 0
      objectReference: {fileID: 0}
    - target: {fileID: 224932240763334860, guid: 42ed9453c529bf34b9fe54125d1274df,
        type: 3}
      propertyPath: m_AnchorMax.y
      value: 0
      objectReference: {fileID: 0}
    - target: {fileID: 224932240763334860, guid: 42ed9453c529bf34b9fe54125d1274df,
        type: 3}
      propertyPath: m_AnchoredPosition.x
      value: 0
      objectReference: {fileID: 0}
    - target: {fileID: 224932240763334860, guid: 42ed9453c529bf34b9fe54125d1274df,
        type: 3}
      propertyPath: m_AnchoredPosition.y
      value: 0
      objectReference: {fileID: 0}
    - target: {fileID: 114495492780352558, guid: 42ed9453c529bf34b9fe54125d1274df,
        type: 3}
      propertyPath: m_OnClick.m_PersistentCalls.m_Calls.Array.data[0].m_Target
      value: 
      objectReference: {fileID: 153659201}
    - target: {fileID: 114495492780352558, guid: 42ed9453c529bf34b9fe54125d1274df,
        type: 3}
      propertyPath: m_OnClick.m_PersistentCalls.m_Calls.Array.data[0].m_MethodName
      value: UILoginPlayFabWithUserAndPassword
      objectReference: {fileID: 0}
    m_RemovedComponents: []
  m_SourcePrefab: {fileID: 100100000, guid: 42ed9453c529bf34b9fe54125d1274df, type: 3}
--- !u!1 &2062726245
GameObject:
  m_ObjectHideFlags: 0
  m_CorrespondingSourceObject: {fileID: 0}
  m_PrefabInstance: {fileID: 0}
  m_PrefabAsset: {fileID: 0}
  serializedVersion: 6
  m_Component:
  - component: {fileID: 2062726246}
  - component: {fileID: 2062726248}
  - component: {fileID: 2062726247}
  m_Layer: 5
  m_Name: RawImage
  m_TagString: Untagged
  m_Icon: {fileID: 0}
  m_NavMeshLayer: 0
  m_StaticEditorFlags: 0
  m_IsActive: 1
--- !u!224 &2062726246
RectTransform:
  m_ObjectHideFlags: 0
  m_CorrespondingSourceObject: {fileID: 0}
  m_PrefabInstance: {fileID: 0}
  m_PrefabAsset: {fileID: 0}
  m_GameObject: {fileID: 2062726245}
  m_LocalRotation: {x: 0, y: 0, z: 0, w: 1}
  m_LocalPosition: {x: 0, y: 0, z: 0}
  m_LocalScale: {x: 1, y: 1, z: 1}
  m_Children: []
  m_Father: {fileID: 1639516898}
  m_RootOrder: 3
  m_LocalEulerAnglesHint: {x: 0, y: 0, z: 0}
  m_AnchorMin: {x: 0.5, y: 0.5}
  m_AnchorMax: {x: 0.5, y: 0.5}
  m_AnchoredPosition: {x: 0, y: -600}
  m_SizeDelta: {x: 100, y: 100}
  m_Pivot: {x: 0.5, y: 0.5}
--- !u!114 &2062726247
MonoBehaviour:
  m_ObjectHideFlags: 0
  m_CorrespondingSourceObject: {fileID: 0}
  m_PrefabInstance: {fileID: 0}
  m_PrefabAsset: {fileID: 0}
  m_GameObject: {fileID: 2062726245}
  m_Enabled: 1
  m_EditorHideFlags: 0
  m_Script: {fileID: 11500000, guid: 1344c3c82d62a2a41a3576d8abb8e3ea, type: 3}
  m_Name: 
  m_EditorClassIdentifier: 
  m_Material: {fileID: 0}
  m_Color: {r: 1, g: 1, b: 1, a: 1}
  m_RaycastTarget: 1
  m_OnCullStateChanged:
    m_PersistentCalls:
      m_Calls: []
    m_TypeName: UnityEngine.UI.MaskableGraphic+CullStateChangedEvent, UnityEngine.UI,
      Version=1.0.0.0, Culture=neutral, PublicKeyToken=null
  m_Texture: {fileID: 0}
  m_UVRect:
    serializedVersion: 2
    x: 0
    y: 0
    width: 1
    height: 1
--- !u!222 &2062726248
CanvasRenderer:
  m_ObjectHideFlags: 0
  m_CorrespondingSourceObject: {fileID: 0}
  m_PrefabInstance: {fileID: 0}
  m_PrefabAsset: {fileID: 0}
  m_GameObject: {fileID: 2062726245}
  m_CullTransparentMesh: 0
